…
# Warning: override pivot wider

    Code
      select_group_tbl(data = social_psy_data, var_stem = c("belong", "identity"),
      group = "gender", na_removal = "pairwise", only = "count", pivot = "wider",
      ignore = list(belong = c(1, 2, 3), identity = c(3, 4, 5)))
    Condition
      Warning in `select_group_tbl()`:
      Some variables have different values, so pivoting to the "wider" format has been disabled. The table will be displayed in the "longer" format instead. To override this behavior and force pivoting, set `force_pivot = TRUE`.
    Output
      # A tibble: 79 x 4
         variable gender values count
         <chr>     <dbl>  <dbl> <int>
       1 belong_1      1      4  1136
       2 belong_1      1      5   560
       3 belong_1      2      4  2115
       4 belong_1      2      5  2442
       5 belong_1      3      4    18
       6 belong_1      3      5     9
       7 belong_1      4      4     7
       8 belong_1      4      5    11
       9 belong_1      5      4    19
      10 belong_1      5      5    17
      # i 69 more rows
