Introduction to summarytabl
…
names(depressive)

##  [1] "cid"   "race"  "sex"   "yob"   "dep_1" "dep_2" "dep_3" "dep_4" "dep_5"
## [10] "dep_6" "dep_7" "dep_8"

With the select_tbl() function, you can summarize these
responses to see how many survey respondents chose each answer option
for every variable:

select_tbl(data = depressive, var_stem = "dep")

## # A tibble: 24 × 4
##    variable values count percent
##    <chr>     <int> <int>   <dbl>
##  1 dep_1         1   109  0.0678
##  2 dep_1         2   689  0.429 
##  3 dep_1         3   809  0.503 
##  4 dep_2         1   144  0.0896
##  5 dep_2         2   746  0.464 
##  6 dep_2         3   717  0.446 
##  7 dep_3         1  1162  0.723 
##  8 dep_3         2   392  0.244 
##  9 dep_3         3    53  0.0330
## 10 dep_4         1   601  0.374 
## # ℹ 14 more rows
…
Set the pivot argument to wider to reshape
the resulting table into a wide format. By default, the summary table is
presented in the long format.

# Default longer format
select_tbl(data = depressive, 
           var_stem = "dep")

## # A tibble: 24 × 4
##    variable values count percent
##    <chr>     <int> <int>   <dbl>
##  1 dep_1         1   109  0.0678
##  2 dep_1         2   689  0.429 
##  3 dep_1         3   809  0.503 
##  4 dep_2         1   144  0.0896
##  5 dep_2         2   746  0.464 
##  6 dep_2         3   717  0.446 
##  7 dep_3         1  1162  0.723 
##  8 dep_3         2   392  0.244 
##  9 dep_3         3    53  0.0330
## 10 dep_4         1   601  0.374 
## # ℹ 14 more rows
…
# longer format
select_group_tbl(data = dep_recoded, 
                 var_stem = "dep",
                 group = "race",
                 pivot = "longer")

## # A tibble: 72 × 5
##    variable race                   values      count percent
##    <chr>    <chr>                  <chr>       <int>   <dbl>
##  1 dep_1    Black                  hardly ever   248   0.307
##  2 dep_1    Hispanic               hardly ever   187   0.231
##  3 dep_1    Non-Black/Non-Hispanic hardly ever   374   0.462
##  4 dep_1    Black                  often          45   0.413
##  5 dep_1    Hispanic               often          28   0.257
##  6 dep_1    Non-Black/Non-Hispanic often          36   0.330
##  7 dep_1    Black                  sometimes     194   0.282
##  8 dep_1    Hispanic               sometimes     155   0.225
##  9 dep_1    Non-Black/Non-Hispanic sometimes     340   0.493
## 10 dep_2    Black                  hardly ever   234   0.326
## # ℹ 62 more rows

# wider format
select_group_tbl(data = dep_recoded, 
                 var_stem = "dep",
                 group = "race",
                 pivot = "wider")

## # A tibble: 24 × 8
##    variable race  count_value_hardly e…¹ count_value_often count_value_sometimes
##    <chr>    <chr>                  <int>             <int>                 <int>
##  1 dep_1    Black                    248                45                   194
##  2 dep_1    Hisp…                    187                28                   155
##  3 dep_1    Non-…                    374                36                   340
##  4 dep_2    Black                    234                49                   204
##  5 dep_2    Hisp…                    171                36                   163
##  6 dep_2    Non-…                    312                59                   379
##  7 dep_3    Black                     19               330                   138
##  8 dep_3    Hisp…                     20               246                   104
##  9 dep_3    Non-…                     14               586                   150
## 10 dep_4    Black                     45               183                   259
## # ℹ 14 more rows
## # ℹ abbreviated name: ¹​`count_value_hardly ever`
## # ℹ 3 more variables: `percent_value_hardly ever` <dbl>,
## #   percent_value_often <dbl>, percent_value_sometimes <dbl>
…
# Default listwise removal: 'often' value removed from all
# dep_ variables, and 'Non-Black/Non-Hispanic' value removed
# from race variable
select_group_tbl(data = dep_recoded, 
                 var_stem = "dep",
                 group = "race",
                 pivot = "longer",
                 ignore = c(dep = "often", race = "Non-Black/Non-Hispanic"))

## # A tibble: 31 × 5
##    variable race     values      count percent
##    <chr>    <chr>    <chr>       <int>   <dbl>
##  1 dep_1    Black    hardly ever    18   0.667
##  2 dep_1    Hispanic hardly ever     9   0.333
##  3 dep_1    Black    sometimes      16   0.444
##  4 dep_1    Hispanic sometimes      20   0.556
##  5 dep_2    Black    hardly ever    18   0.581
##  6 dep_2    Hispanic hardly ever    13   0.419
##  7 dep_2    Black    sometimes      16   0.5  
##  8 dep_2    Hispanic sometimes      16   0.5  
##  9 dep_3    Hispanic hardly ever     8   1    
## 10 dep_3    Black    sometimes      34   0.618
## # ℹ 21 more rows

# Pairwise removal: 'often' value removed from all
# dep_ variables, and 'Non-Black/Non-Hispanic' value removed
# from race variable
select_group_tbl(data = dep_recoded, 
                 var_stem = "dep",
                 group = "race",
                 pivot = "longer",
                 ignore = c(dep = "often", race = "Non-Black/Non-Hispanic"),
                 na_removal = "pairwise")

## # A tibble: 32 × 5
##    variable race     values      count percent
##    <chr>    <chr>    <chr>       <int>   <dbl>
##  1 dep_1    Black    hardly ever   256   0.574
##  2 dep_1    Hispanic hardly ever   190   0.426
##  3 dep_1    Black    sometimes     203   0.561
##  4 dep_1    Hispanic sometimes     159   0.439
##  5 dep_2    Black    hardly ever   241   0.584
##  6 dep_2    Hispanic hardly ever   172   0.416
##  7 dep_2    Black    sometimes     213   0.563
##  8 dep_2    Hispanic sometimes     165   0.437
##  9 dep_3    Black    hardly ever    20   0.5  
## 10 dep_3    Hispanic hardly ever    20   0.5  
## # ℹ 22 more rows

Use a list if you want to exclude several values from the same
var_stem or group variable:

select_group_tbl(data = dep_recoded, 
                 var_stem = "dep",
                 group = "race",
                 pivot = "longer",
                 ignore = list(race = c("Hispanic", "Non-Black/Non-Hispanic")))

## # A tibble: 24 × 5
##    variable race  values      count percent
##    <chr>    <chr> <chr>       <int>   <dbl>
##  1 dep_1    Black hardly ever   248       1
##  2 dep_1    Black often          45       1
##  3 dep_1    Black sometimes     194       1
##  4 dep_2    Black hardly ever   234       1
##  5 dep_2    Black often          49       1
##  6 dep_2    Black sometimes     204       1
##  7 dep_3    Black hardly ever    19       1
##  8 dep_3    Black often         330       1
##  9 dep_3    Black sometimes     138       1
## 10 dep_4    Black hardly ever    45       1
## # ℹ 14 more rows
…
